<?xml version="1.0" encoding="UTF-8" standalone="no"?>
<svg
   xmlns:dc="http://purl.org/dc/elements/1.1/"
   xmlns:cc="http://creativecommons.org/ns#"
   xmlns:rdf="http://www.w3.org/1999/02/22-rdf-syntax-ns#"
   xmlns:svg="http://www.w3.org/2000/svg"
   xmlns="http://www.w3.org/2000/svg"
   xmlns:sodipodi="http://sodipodi.sourceforge.net/DTD/sodipodi-0.dtd"
   xmlns:inkscape="http://www.inkscape.org/namespaces/inkscape"
   sodipodi:docname="Luciole numbers.svg"
   inkscape:version="1.0 (4035a4fb49, 2020-05-01)"
   id="svg8"
   version="1.1"
   viewBox="0 0 210 297"
   height="297mm"
   width="210mm">
  <defs
     id="defs2">
    <rect
       id="rect928"
       height="30.735996"
       width="17.37252"
       y="106.97463"
       x="38.219542" />
  </defs>
  <sodipodi:namedview
     inkscape:window-maximized="0"
     inkscape:window-y="163"
     inkscape:window-x="2846"
     inkscape:window-height="1198"
     inkscape:window-width="1274"
     showgrid="false"
     inkscape:document-rotation="0"
     inkscape:current-layer="layer1"
     inkscape:document-units="mm"
     inkscape:cy="449.12646"
     inkscape:cx="172.46581"
     inkscape:zoom="3.959798"
     inkscape:pageshadow="2"
     inkscape:pageopacity="0.0"
     borderopacity="1.0"
     bordercolor="#666666"
     pagecolor="#ffffff"
     id="base" />
  <metadata
     id="metadata5">
    <rdf:RDF>
      <cc:Work
         rdf:about="">
        <dc:format>image/svg+xml</dc:format>
        <dc:type
           rdf:resource="http://purl.org/dc/dcmitype/StillImage" />
        <dc:title></dc:title>
      </cc:Work>
    </rdf:RDF>
  </metadata>
  <g
     id="layer1"
     inkscape:groupmode="layer"
     inkscape:label="Layer 1">
    <g
       style="font-style:normal;font-variant:normal;font-weight:normal;font-stretch:normal;font-size:10.5833px;line-height:1.25;font-family:Luciole;-inkscape-font-specification:Luciole;fill:#000000;fill-opacity:1;stroke:none;stroke-width:0.264583"
       id="text835-9"
       aria-label="4">
      <path
         id="path1003"
         style="font-style:normal;font-variant:normal;font-weight:normal;font-stretch:normal;font-family:Luciole;-inkscape-font-specification:Luciole;stroke-width:0.264583"
         d="M 42.347079,151.64241 V 149.748 h -3.471322 v -1.016 l 3.249073,-5.16465 h 1.439329 v 5.16465 h 0.93133 v 1.016 h -0.93133 v 1.89441 z m -2.18016,-2.91041 h 2.18016 v -3.78882 h -0.03175 q -0.04233,0.11642 -0.116416,0.26458 -0.07408,0.14817 -0.560915,0.96308 l -1.502828,2.52941 z" />
    </g>
    <g
       style="font-style:normal;font-variant:normal;font-weight:normal;font-stretch:normal;font-size:10.5833px;line-height:1.25;font-family:Luciole;-inkscape-font-specification:Luciole;fill:#000000;fill-opacity:1;stroke:none;stroke-width:0.264583"
       id="text835"
       aria-label="20
">
      <path
         id="path1023"
         style="font-style:normal;font-variant:normal;font-weight:normal;font-stretch:normal;font-family:Luciole;-inkscape-font-specification:Luciole;stroke-width:0.264583"
         d="m 42.449734,98.695633 v 1.09008 h -4.773068 v -1.301746 q 0.878414,-0.83608 1.312329,-1.259412 0.433915,-0.433916 0.740831,-0.772581 0.719664,-0.783164 1.037163,-1.375829 0.328083,-0.592665 0.328083,-1.100663 0,-0.624415 -0.359832,-0.963081 -0.359833,-0.338665 -1.005414,-0.338665 -0.497415,0 -1.02658,0.211666 -0.529165,0.211666 -0.910164,0.550331 v -1.195912 q 0.433915,-0.306916 0.973664,-0.476249 0.550331,-0.179916 1.09008,-0.179916 1.185329,0 1.83091,0.624415 0.645582,0.613831 0.645582,1.767411 0,0.89958 -0.666748,1.883827 -0.656165,0.984247 -2.571742,2.804574 l 0.03175,0.03175 z" />
      <path
         id="path1025"
         style="font-style:normal;font-variant:normal;font-weight:normal;font-stretch:normal;font-family:Luciole;-inkscape-font-specification:Luciole;stroke-width:0.264583"
         d="m 49.649685,95.753476 q 0,2.031994 -0.740831,3.090324 -0.740831,1.058329 -2.18016,1.058329 -1.439328,0 -2.180159,-1.047746 -0.730248,-1.05833 -0.730248,-3.100907 0,-2.042577 0.730248,-3.100907 0.740831,-1.05833 2.180159,-1.05833 1.439329,0 2.18016,1.068914 0.740831,1.05833 0.740831,3.090323 z m -1.248829,0 q 0,-1.566328 -0.412749,-2.307159 -0.412749,-0.740831 -1.259413,-0.740831 -0.846664,0 -1.259412,0.740831 -0.402166,0.730247 -0.402166,2.307159 0,1.566328 0.402166,2.307159 0.412748,0.730248 1.259412,0.730248 0.846664,0 1.259413,-0.730248 0.412749,-0.740831 0.412749,-2.307159 z" />
    </g>
    <g
       style="font-style:normal;font-weight:normal;font-size:10.5833px;line-height:1.25;font-family:sans-serif;white-space:pre;shape-inside:url(#rect928);fill:#000000;fill-opacity:1;stroke:none"
       id="text926" />
    <g
       style="font-style:normal;font-variant:normal;font-weight:normal;font-stretch:normal;font-size:10.5833px;line-height:1.25;font-family:Luciole;-inkscape-font-specification:Luciole;fill:#000000;fill-opacity:1;stroke:none;stroke-width:0.264583"
       id="text835-4"
       aria-label="12">
      <path
         id="path1017"
         style="font-style:normal;font-variant:normal;font-weight:normal;font-stretch:normal;font-family:Luciole;-inkscape-font-specification:Luciole;stroke-width:0.264583"
         d="m 42.150411,108.25693 v 1.09008 h -4.476735 v -1.09008 h 1.629828 v -4.8789 h -1.725078 v -0.9525 q 0.222249,0 0.412749,-0.0212 0.190499,-0.0318 0.359832,-0.0741 0.201083,-0.0635 0.359832,-0.14817 0.169333,-0.0952 0.285749,-0.22225 0.15875,-0.16933 0.232833,-0.33866 0.07408,-0.16933 0.07408,-0.34925 h 1.217079 v 6.98498 z" />
      <path
         id="path1019"
         style="font-style:normal;font-variant:normal;font-weight:normal;font-stretch:normal;font-family:Luciole;-inkscape-font-specification:Luciole;stroke-width:0.264583"
         d="m 48.035884,108.25693 v 1.09008 h -4.773068 v -1.30175 q 0.878413,-0.83608 1.312329,-1.25941 0.433915,-0.43392 0.740831,-0.77258 0.719664,-0.78317 1.037163,-1.37583 0.328082,-0.59267 0.328082,-1.10066 0,-0.62442 -0.359832,-0.96308 -0.359832,-0.33867 -1.005413,-0.33867 -0.497415,0 -1.02658,0.21167 -0.529165,0.21166 -0.910164,0.55033 v -1.19591 q 0.433915,-0.30692 0.973663,-0.47625 0.550332,-0.17992 1.09008,-0.17992 1.18533,0 1.830911,0.62442 0.645581,0.61383 0.645581,1.76741 0,0.89958 -0.666747,1.88382 -0.656165,0.98425 -2.571742,2.80458 l 0.03175,0.0318 z" />
    </g>
    <g
       style="font-style:normal;font-variant:normal;font-weight:normal;font-stretch:normal;font-size:10.5833px;line-height:1.25;font-family:Luciole;-inkscape-font-specification:Luciole;fill:#000000;fill-opacity:1;stroke:none;stroke-width:0.264583"
       id="text835-7"
       aria-label="10">
      <path
         id="path1012"
         style="font-style:normal;font-variant:normal;font-weight:normal;font-stretch:normal;font-family:Luciole;-inkscape-font-specification:Luciole;stroke-width:0.264583"
         d="m 42.150411,119.54907 v 1.09008 h -4.476735 v -1.09008 h 1.629828 v -4.8789 h -1.725078 v -0.9525 q 0.222249,0 0.412749,-0.0212 0.190499,-0.0318 0.359832,-0.0741 0.201083,-0.0635 0.359832,-0.14816 0.169333,-0.0953 0.285749,-0.22225 0.15875,-0.16933 0.232833,-0.33867 0.07408,-0.16933 0.07408,-0.34925 h 1.217079 v 6.98498 z" />
      <path
         id="path1014"
         style="font-style:normal;font-variant:normal;font-weight:normal;font-stretch:normal;font-family:Luciole;-inkscape-font-specification:Luciole;stroke-width:0.264583"
         d="m 48.993342,116.60692 q 0,2.03199 -0.740831,3.09032 -0.740831,1.05833 -2.18016,1.05833 -1.439329,0 -2.18016,-1.04775 -0.730247,-1.05833 -0.730247,-3.1009 0,-2.04258 0.730247,-3.10091 0.740831,-1.05833 2.18016,-1.05833 1.439329,0 2.18016,1.06891 0.740831,1.05833 0.740831,3.09033 z m -1.24883,0 q 0,-1.56633 -0.412748,-2.30716 -0.412749,-0.74083 -1.259413,-0.74083 -0.846664,0 -1.259413,0.74083 -0.402165,0.73024 -0.402165,2.30716 0,1.56632 0.402165,2.30715 0.412749,0.73025 1.259413,0.73025 0.846664,0 1.259413,-0.73025 0.412748,-0.74083 0.412748,-2.30715 z" />
    </g>
    <g
       style="font-style:normal;font-variant:normal;font-weight:normal;font-stretch:normal;font-size:10.5833px;line-height:1.25;font-family:Luciole;-inkscape-font-specification:Luciole;fill:#000000;fill-opacity:1;stroke:none;stroke-width:0.264583"
       id="text835-0"
       aria-label="8">
      <path
         id="path1009"
         style="font-style:normal;font-variant:normal;font-weight:normal;font-stretch:normal;font-family:Luciole;-inkscape-font-specification:Luciole;stroke-width:0.264583"
         d="m 44.271181,128.98439 q 0,1.00542 -0.814914,1.67217 -0.814914,0.65616 -2.000244,0.65616 -1.280579,0 -2.063743,-0.61383 -0.772581,-0.61383 -0.772581,-1.62983 0,-0.64558 0.380999,-1.2065 0.380999,-0.56091 1.068913,-0.95249 -0.550331,-0.28575 -0.857247,-0.73025 -0.296333,-0.45508 -0.296333,-0.99483 0,-0.94191 0.719665,-1.55574 0.730248,-0.62442 1.830911,-0.62442 1.09008,0 1.767411,0.5715 0.687914,0.5715 0.687914,1.46049 0,0.58209 -0.317499,1.06892 -0.317499,0.48683 -0.846664,0.75141 0.772581,0.39158 1.142997,0.92075 0.370415,0.51858 0.370415,1.20649 z m -1.587495,-3.76765 q 0,-0.53975 -0.349249,-0.86783 -0.338665,-0.32808 -0.93133,-0.32808 -0.550332,0 -0.899581,0.3175 -0.349248,0.3175 -0.349248,0.79374 0,0.4445 0.391582,0.77258 0.402165,0.32809 1.238246,0.5715 0.412748,-0.20108 0.656164,-0.52916 0.243416,-0.33867 0.243416,-0.73025 z m 0.349249,3.75707 q 0,-0.508 -0.529165,-0.92075 -0.529165,-0.41274 -1.534578,-0.66674 -0.497415,0.21166 -0.804331,0.62441 -0.306916,0.40217 -0.306916,0.889 0,0.635 0.412749,1.016 0.423332,0.38099 1.132413,0.38099 0.751414,0 1.185329,-0.34925 0.444499,-0.35983 0.444499,-0.97366 z" />
    </g>
    <g
       style="font-style:normal;font-variant:normal;font-weight:normal;font-stretch:normal;font-size:10.5833px;line-height:1.25;font-family:Luciole;-inkscape-font-specification:Luciole;fill:#000000;fill-opacity:1;stroke:none;stroke-width:0.264583"
       id="text835-47"
       aria-label="6">
      <path
         id="path1006"
         style="font-style:normal;font-variant:normal;font-weight:normal;font-stretch:normal;font-family:Luciole;-inkscape-font-specification:Luciole;stroke-width:0.264583"
         d="m 44.463735,139.18171 q 0,1.16416 -0.740831,1.92616 -0.730247,0.76199 -1.904994,0.76199 -1.333495,0 -2.031993,-0.99483 -0.698498,-1.00541 -0.698498,-2.88924 0,-2.12724 0.846664,-3.27024 0.857247,-1.15358 2.455326,-1.15358 0.402165,0 0.825497,0.0847 0.433915,0.0847 0.857247,0.24342 v 1.20649 q -0.476248,-0.22225 -0.878414,-0.32808 -0.402165,-0.11642 -0.761997,-0.11642 -1.037164,0 -1.587495,0.65617 -0.539748,0.65616 -0.539748,1.90499 0.370415,-0.26458 0.793747,-0.39158 0.423332,-0.13758 0.867831,-0.13758 1.153579,0 1.820327,0.67733 0.677331,0.67733 0.677331,1.82033 z m -1.238246,0.0952 q 0,-0.762 -0.402165,-1.16417 -0.391582,-0.41275 -1.12183,-0.41275 -0.423332,0 -0.793747,0.13759 -0.359833,0.127 -0.603248,0.35983 0,1.30175 0.380998,1.96849 0.391582,0.66675 1.15358,0.66675 0.656165,0 1.015997,-0.41275 0.370415,-0.42333 0.370415,-1.14299 z" />
    </g>
  </g>
</svg>
